<?xml version="1.0" encoding="utf-8"?>
<svg version="1.1" id="Layer_1" xmlns="http://www.w3.org/2000/svg" xmlns:xlink="http://www.w3.org/1999/xlink" x="0px" y="0px"
     viewBox="0 0 992.6 200" style="enable-background:new 0 0 992.6 200;" xml:space="preserve">
<style type="text/css">
	.st0{fill:#233162;}
	.st1{fill:#C22626;}
</style>
    <g>
        <path class="st1" d="M183.2,148.5c-16.3-4.9-40.7-20.8-59.9-53.9c-13.9-23.9-19.2-44.1-19.2-61.5c0-8.6,1-14.9,2.5-18.2
		c17.2,4.9,40.9,21.2,59.7,54.3c14.1,24.5,19.4,46.4,19.4,63.5C185.7,138.7,184.6,144,183.2,148.5 M17.5,148.5
		c-1.6-4.5-2.2-9.8-2.2-15.7c0-17.2,5.5-39,19.2-63.5C53.1,35.8,77.2,19.9,94.6,15c0.8,3.3,2.2,9.6,2.2,18.2
		c0,18.2-5.3,37.2-19.2,61.5C58.6,127.9,33.9,143.6,17.5,148.5 M100.3,182.6c-38.2,0-64.8-12.7-77.2-24.7
		c12.5-12.3,39-24.7,77.2-24.7c38.4,0,65.2,12.5,77.2,24.7C165.4,170,138.7,182.6,100.3,182.6 M0,200h200V0H0V200z"/>
    </g>
</svg>
